[
    "com.evancharlton.mileage-mutant230",
    "com.evancharlton.mileage-mutant238",
    "com.evancharlton.mileage-mutant247",
    "com.evancharlton.mileage-mutant248",
    "com.evancharlton.mileage-mutant249",
    "com.evancharlton.mileage-mutant250",
    "com.evancharlton.mileage-mutant253",
    "com.evancharlton.mileage-mutant255",
    "com.evancharlton.mileage-mutant256",
    "com.evancharlton.mileage-mutant2817",
    "com.evancharlton.mileage-mutant2821",
    "com.evancharlton.mileage-mutant2827",
    "com.evancharlton.mileage-mutant2831",
    "com.evancharlton.mileage-mutant2832",
    "com.evancharlton.mileage-mutant2834",
    "com.evancharlton.mileage-mutant2839",
    "com.evancharlton.mileage-mutant2840",
    "com.evancharlton.mileage-mutant2842",
    "com.evancharlton.mileage-mutant2843",
    "com.evancharlton.mileage-mutant2847",
    "com.evancharlton.mileage-mutant2848",
    "com.evancharlton.mileage-mutant2873",
    "com.evancharlton.mileage-mutant2912",
    "com.evancharlton.mileage-mutant2913",
    "com.evancharlton.mileage-mutant2915",
    "com.evancharlton.mileage-mutant2917",
    "com.evancharlton.mileage-mutant2918",
    "com.evancharlton.mileage-mutant2924",
    "com.evancharlton.mileage-mutant2929",
    "com.evancharlton.mileage-mutant2930",
    "com.evancharlton.mileage-mutant2932",
    "com.evancharlton.mileage-mutant2933",
    "com.evancharlton.mileage-mutant2934"
]