[
    "com.evancharlton.mileage-mutant4070",
    "com.evancharlton.mileage-mutant4105",
    "com.evancharlton.mileage-mutant468",
    "com.evancharlton.mileage-mutant472",
    "com.evancharlton.mileage-mutant473",
    "com.evancharlton.mileage-mutant474",
    "com.evancharlton.mileage-mutant475",
    "com.evancharlton.mileage-mutant476",
    "com.evancharlton.mileage-mutant477",
    "com.evancharlton.mileage-mutant478",
    "com.evancharlton.mileage-mutant479",
    "com.evancharlton.mileage-mutant481",
    "com.evancharlton.mileage-mutant482",
    "com.evancharlton.mileage-mutant484",
    "com.evancharlton.mileage-mutant568",
    "com.evancharlton.mileage-mutant570",
    "com.evancharlton.mileage-mutant571",
    "com.evancharlton.mileage-mutant585",
    "com.evancharlton.mileage-mutant586",
    "com.evancharlton.mileage-mutant594",
    "com.evancharlton.mileage-mutant595",
    "com.evancharlton.mileage-mutant609",
    "com.evancharlton.mileage-mutant614",
    "com.evancharlton.mileage-mutant616",
    "com.evancharlton.mileage-mutant622",
    "com.evancharlton.mileage-mutant623",
    "com.evancharlton.mileage-mutant632",
    "com.evancharlton.mileage-mutant635",
    "com.evancharlton.mileage-mutant637",
    "com.evancharlton.mileage-mutant638",
    "com.evancharlton.mileage-mutant641",
    "com.evancharlton.mileage-mutant642",
    "com.evancharlton.mileage-mutant643",
    "com.evancharlton.mileage-mutant648",
    "com.evancharlton.mileage-mutant649",
    "com.evancharlton.mileage-mutant651",
    "com.evancharlton.mileage-mutant652",
    "com.evancharlton.mileage-mutant660",
    "com.evancharlton.mileage-mutant662",
    "com.evancharlton.mileage-mutant663",
    "com.evancharlton.mileage-mutant669",
    "com.evancharlton.mileage-mutant7",
    "com.evancharlton.mileage-mutant715",
    "com.evancharlton.mileage-mutant934",
    "com.evancharlton.mileage-mutant935",
    "com.evancharlton.mileage-mutant937",
    "com.evancharlton.mileage-mutant938",
    "com.evancharlton.mileage-mutant939",
    "com.evancharlton.mileage-mutant942",
    "com.evancharlton.mileage-mutant943",
    "com.evancharlton.mileage-mutant947",
    "com.evancharlton.mileage-mutant949",
    "com.evancharlton.mileage-mutant951",
    "com.evancharlton.mileage-mutant952",
    "com.evancharlton.mileage-mutant959",
    "com.evancharlton.mileage-mutant964",
    "com.evancharlton.mileage-mutant974",
    "com.evancharlton.mileage-mutant975",
    "com.evancharlton.mileage-mutant977",
    "com.evancharlton.mileage-mutant982",
    "com.evancharlton.mileage-mutant983",
    "com.evancharlton.mileage-mutant987",
    "com.evancharlton.mileage-mutant989",
    "com.evancharlton.mileage-mutant990",
    "com.evancharlton.mileage-mutant991",
    "com.evancharlton.mileage-mutant992"
]