[
    "com.evancharlton.mileage-mutant1",
    "com.evancharlton.mileage-mutant100",
    "com.evancharlton.mileage-mutant1003",
    "com.evancharlton.mileage-mutant1004",
    "com.evancharlton.mileage-mutant1005",
    "com.evancharlton.mileage-mutant1008",
    "com.evancharlton.mileage-mutant1009",
    "com.evancharlton.mileage-mutant1010"
]