[
    "com.evancharlton.mileage-mutant151",
    "com.evancharlton.mileage-mutant1510",
    "com.evancharlton.mileage-mutant1511",
    "com.evancharlton.mileage-mutant1512",
    "com.evancharlton.mileage-mutant1513",
    "com.evancharlton.mileage-mutant1514",
    "com.evancharlton.mileage-mutant1515",
    "com.evancharlton.mileage-mutant1516",
    "com.evancharlton.mileage-mutant1517",
    "com.evancharlton.mileage-mutant1518",
    "com.evancharlton.mileage-mutant1519",
    "com.evancharlton.mileage-mutant152",
    "com.evancharlton.mileage-mutant1520",
    "com.evancharlton.mileage-mutant1521",
    "com.evancharlton.mileage-mutant1522",
    "com.evancharlton.mileage-mutant1523",
    "com.evancharlton.mileage-mutant1524",
    "com.evancharlton.mileage-mutant1525",
    "com.evancharlton.mileage-mutant1526",
    "com.evancharlton.mileage-mutant1527",
    "com.evancharlton.mileage-mutant1528",
    "com.evancharlton.mileage-mutant1529",
    "com.evancharlton.mileage-mutant16",
    "com.evancharlton.mileage-mutant161",
    "com.evancharlton.mileage-mutant162",
    "com.evancharlton.mileage-mutant163",
    "com.evancharlton.mileage-mutant164",
    "com.evancharlton.mileage-mutant165",
    "com.evancharlton.mileage-mutant166",
    "com.evancharlton.mileage-mutant1749"
]